ALU-8-Bits/ALU/dump.vcd
$date
	Thu Oct 23 16:24:04 2025
$end
$version
	Icarus Verilog
$end
$timescale
	1ps
$end
$scope module ALU_tb $end
$var wire 1 ! overflow $end
$var wire 8 " outbus [7:0] $end
$var wire 1 # finish $end
$var reg 1 $ clk $end
$var reg 8 % inbus [7:0] $end
$var reg 1 & rst_b $end
$var reg 2 ' s [1:0] $end
$var reg 1 ( start $end
$var integer 32 ) i [31:0] $end
$scope module alu $end
$var wire 1 $ clk $end
$var wire 8 * inbus [7:0] $end
$var wire 1 ! overflow $end
$var wire 1 & rst_b $end
$var wire 2 + s [1:0] $end
$var wire 1 ( start $end
$var wire 9 , z [8:0] $end
$var wire 8 - q_out [7:0] $end
$var wire 1 . q_1out $end
$var wire 1 / overfl $end
$var wire 8 0 outbus [7:0] $end
$var wire 8 1 m_out [7:0] $end
$var wire 1 # finish $end
$var wire 3 2 cnt_out [2:0] $end
$var wire 11 3 c [10:0] $end
$var wire 9 4 a_out [8:0] $end
$scope module COUNT $end
$var wire 1 5 c_up $end
$var wire 1 $ clk $end
$var wire 1 & rst_b $end
$var wire 3 6 out [2:0] $end
$scope module f0 $end
$var wire 1 $ clk $end
$var wire 1 7 d $end
$var wire 1 5 en $end
$var wire 1 & rst_b $end
$var reg 1 8 q $end
$upscope $end
$scope module f1 $end
$var wire 1 $ clk $end
$var wire 1 9 d $end
$var wire 1 5 en $end
$var wire 1 & rst_b $end
$var reg 1 : q $end
$upscope $end
$scope module f2 $end
$var wire 1 $ clk $end
$var wire 1 ; d $end
$var wire 1 5 en $end
$var wire 1 & rst_b $end
$var reg 1 < q $end
$upscope $end
$upscope $end
$scope module CU $end
$var wire 1 = a_8 $end
$var wire 1 $ clk $end
$var wire 3 > cnt [2:0] $end
$var wire 1 # finish $end
$var wire 1 ? q0 $end
$var wire 1 & rst_b $end
$var wire 2 @ s [1:0] $end
$var wire 1 ( start $end
$var wire 4 A qout [3:0] $end
$var wire 1 . q_1 $end
$var wire 11 B c [10:0] $end
$scope module f0 $end
$var wire 1 $ clk $end
$var wire 1 C d $end
$var wire 1 D en $end
$var wire 1 & rst_b $end
$var reg 1 E q $end
$upscope $end
$scope module f1 $end
$var wire 1 $ clk $end
$var wire 1 F d $end
$var wire 1 G en $end
$var wire 1 & rst_b $end
$var reg 1 H q $end
$upscope $end
$scope module f2 $end
$var wire 1 $ clk $end
$var wire 1 I d $end
$var wire 1 J en $end
$var wire 1 & rst_b $end
$var reg 1 K q $end
$upscope $end
$scope module f3 $end
$var wire 1 $ clk $end
$var wire 1 L d $end
$var wire 1 M en $end
$var wire 1 & rst_b $end
$var reg 1 N q $end
$upscope $end
$upscope $end
$scope module adder $end
$var wire 1 O ci $end
$var wire 1 / overflow $end
$var wire 9 P x [8:0] $end
$var wire 9 Q z [8:0] $end
$var wire 9 R y [8:0] $end
$var wire 8 S w_co [7:0] $end
$var wire 1 T co $end
$scope begin genblk1[0] $end
$var parameter 2 U i $end
$scope begin genblk1 $end
$scope module f $end
$var wire 1 O ci $end
$var wire 1 V co $end
$var wire 1 W x $end
$var wire 1 X y $end
$var wire 1 Y z $end
$upscope $end
$upscope $end
$upscope $end
$scope begin genblk1[1] $end
$var parameter 2 Z i $end
$scope begin genblk1 $end
$scope module f $end
$var wire 1 [ ci $end
$var wire 1 \ co $end
$var wire 1 ] x $end
$var wire 1 ^ y $end
$var wire 1 _ z $end
$upscope $end
$upscope $end
$upscope $end
$scope begin genblk1[2] $end
$var parameter 3 ` i $end
$scope begin genblk1 $end
$scope module f $end
$var wire 1 a ci $end
$var wire 1 b co $end
$var wire 1 c x $end
$var wire 1 d y $end
$var wire 1 e z $end
$upscope $end
$upscope $end
$upscope $end
$scope begin genblk1[3] $end
$var parameter 3 f i $end
$scope begin genblk1 $end
$scope module f $end
$var wire 1 g ci $end
$var wire 1 h co $end
$var wire 1 i x $end
$var wire 1 j y $end
$var wire 1 k z $end
$upscope $end
$upscope $end
$upscope $end
$scope begin genblk1[4] $end
$var parameter 4 l i $end
$scope begin genblk1 $end
$scope module f $end
$var wire 1 m ci $end
$var wire 1 n co $end
$var wire 1 o x $end
$var wire 1 p y $end
$var wire 1 q z $end
$upscope $end
$upscope $end
$upscope $end
$scope begin genblk1[5] $end
$var parameter 4 r i $end
$scope begin genblk1 $end
$scope module f $end
$var wire 1 s ci $end
$var wire 1 t co $end
$var wire 1 u x $end
$var wire 1 v y $end
$var wire 1 w z $end
$upscope $end
$upscope $end
$upscope $end
$scope begin genblk1[6] $end
$var parameter 4 x i $end
$scope begin genblk1 $end
$scope module f $end
$var wire 1 y ci $end
$var wire 1 z co $end
$var wire 1 { x $end
$var wire 1 | y $end
$var wire 1 } z $end
$upscope $end
$upscope $end
$upscope $end
$scope begin genblk1[7] $end
$var parameter 4 ~ i $end
$scope begin genblk1 $end
$scope module f $end
$var wire 1 !" ci $end
$var wire 1 "" co $end
$var wire 1 #" x $end
$var wire 1 $" y $end
$var wire 1 %" z $end
$upscope $end
$upscope $end
$upscope $end
$scope begin genblk1[8] $end
$var parameter 5 &" i $end
$scope begin genblk1 $end
$scope module f $end
$var wire 1 '" ci $end
$var wire 1 T co $end
$var wire 1 (" x $end
$var wire 1 )" y $end
$var wire 1 *" z $end
$upscope $end
$upscope $end
$upscope $end
$upscope $end
$scope module regA $end
$var wire 1 $ clk $end
$var wire 9 +" in [8:0] $end
$var wire 1 ," q7 $end
$var wire 1 & rst_b $end
$var wire 2 -" sel [1:0] $end
$var wire 9 ." out [8:0] $end
$var wire 9 /" mux_wire [8:0] $end
$scope module f0 $end
$var wire 1 $ clk $end
$var wire 1 0" d $end
$var wire 1 1" en $end
$var wire 1 & rst_b $end
$var reg 1 2" q $end
$upscope $end
$scope module f1 $end
$var wire 1 $ clk $end
$var wire 1 3" d $end
$var wire 1 4" en $end
$var wire 1 & rst_b $end
$var reg 1 5" q $end
$upscope $end
$scope module f2 $end
$var wire 1 $ clk $end
$var wire 1 6" d $end
$var wire 1 7" en $end
$var wire 1 & rst_b $end
$var reg 1 8" q $end
$upscope $end
$scope module f3 $end
$var wire 1 $ clk $end
$var wire 1 9" d $end
$var wire 1 :" en $end
$var wire 1 & rst_b $end
$var reg 1 ;" q $end
$upscope $end
$scope module f4 $end
$var wire 1 $ clk $end
$var wire 1 <" d $end
$var wire 1 =" en $end
$var wire 1 & rst_b $end
$var reg 1 >" q $end
$upscope $end
$scope module f5 $end
$var wire 1 $ clk $end
$var wire 1 ?" d $end
$var wire 1 @" en $end
$var wire 1 & rst_b $end
$var reg 1 A" q $end
$upscope $end
$scope module f6 $end
$var wire 1 $ clk $end
$var wire 1 B" d $end
$var wire 1 C" en $end
$var wire 1 & rst_b $end
$var reg 1 D" q $end
$upscope $end
$scope module f7 $end
$var wire 1 $ clk $end
$var wire 1 E" d $end
$var wire 1 F" en $end
$var wire 1 & rst_b $end
$var reg 1 G" q $end
$upscope $end
$scope module f8 $end
$var wire 1 $ clk $end
$var wire 1 H" d $end
$var wire 1 I" en $end
$var wire 1 & rst_b $end
$var reg 1 J" q $end
$upscope $end
$scope module m0 $end
$var wire 1 K" d0 $end
$var wire 1 L" d1 $end
$var wire 1 ," d2 $end
$var wire 1 M" d3 $end
$var wire 2 N" sel [1:0] $end
$var wire 1 O" o $end
$var parameter 32 P" w $end
$upscope $end
$scope module m1 $end
$var wire 1 Q" d0 $end
$var wire 1 R" d1 $end
$var wire 1 S" d2 $end
$var wire 1 T" d3 $end
$var wire 2 U" sel [1:0] $end
$var wire 1 V" o $end
$var parameter 32 W" w $end
$upscope $end
$scope module m2 $end
$var wire 1 X" d0 $end
$var wire 1 Y" d1 $end
$var wire 1 Z" d2 $end
$var wire 1 [" d3 $end
$var wire 2 \" sel [1:0] $end
$var wire 1 ]" o $end
$var parameter 32 ^" w $end
$upscope $end
$scope module m3 $end
$var wire 1 _" d0 $end
$var wire 1 `" d1 $end
$var wire 1 a" d2 $end
$var wire 1 b" d3 $end
$var wire 2 c" sel [1:0] $end
$var wire 1 d" o $end
$var parameter 32 e" w $end
$upscope $end
$scope module m4 $end
$var wire 1 f" d0 $end
$var wire 1 g" d1 $end
$var wire 1 h" d2 $end
$var wire 1 i" d3 $end
$var wire 2 j" sel [1:0] $end
$var wire 1 k" o $end
$var parameter 32 l" w $end
$upscope $end
$scope module m5 $end
$var wire 1 m" d0 $end
$var wire 1 n" d1 $end
$var wire 1 o" d2 $end
$var wire 1 p" d3 $end
$var wire 2 q" sel [1:0] $end
$var wire 1 r" o $end
$var parameter 32 s" w $end
$upscope $end
$scope module m6 $end
$var wire 1 t" d0 $end
$var wire 1 u" d1 $end
$var wire 1 v" d2 $end
$var wire 1 w" d3 $end
$var wire 2 x" sel [1:0] $end
$var wire 1 y" o $end
$var parameter 32 z" w $end
$upscope $end
$scope module m7 $end
$var wire 1 {" d0 $end
$var wire 1 |" d1 $end
$var wire 1 }" d2 $end
$var wire 1 ~" d3 $end
$var wire 2 !# sel [1:0] $end
$var wire 1 "# o $end
$var parameter 32 ## w $end
$upscope $end
$scope module m8 $end
$var wire 1 $# d0 $end
$var wire 1 %# d1 $end
$var wire 1 &# d2 $end
$var wire 1 '# d3 $end
$var wire 2 (# sel [1:0] $end
$var wire 1 )# o $end
$var parameter 32 *# w $end
$upscope $end
$upscope $end
$scope module regM $end
$var wire 1 $ clk $end
$var wire 1 +# en $end
$var wire 8 ,# in [7:0] $end
$var wire 1 & rst_b $end
$var wire 8 -# out [7:0] $end
$scope module f0 $end
$var wire 1 $ clk $end
$var wire 1 .# d $end
$var wire 1 +# en $end
$var wire 1 & rst_b $end
$var reg 1 /# q $end
$upscope $end
$scope module f1 $end
$var wire 1 $ clk $end
$var wire 1 0# d $end
$var wire 1 +# en $end
$var wire 1 & rst_b $end
$var reg 1 1# q $end
$upscope $end
$scope module f2 $end
$var wire 1 $ clk $end
$var wire 1 2# d $end
$var wire 1 +# en $end
$var wire 1 & rst_b $end
$var reg 1 3# q $end
$upscope $end
$scope module f3 $end
$var wire 1 $ clk $end
$var wire 1 4# d $end
$var wire 1 +# en $end
$var wire 1 & rst_b $end
$var reg 1 5# q $end
$upscope $end
$scope module f4 $end
$var wire 1 $ clk $end
$var wire 1 6# d $end
$var wire 1 +# en $end
$var wire 1 & rst_b $end
$var reg 1 7# q $end
$upscope $end
$scope module f5 $end
$var wire 1 $ clk $end
$var wire 1 8# d $end
$var wire 1 +# en $end
$var wire 1 & rst_b $end
$var reg 1 9# q $end
$upscope $end
$scope module f6 $end
$var wire 1 $ clk $end
$var wire 1 :# d $end
$var wire 1 +# en $end
$var wire 1 & rst_b $end
$var reg 1 ;# q $end
$upscope $end
$scope module f7 $end
$var wire 1 $ clk $end
$var wire 1 <# d $end
$var wire 1 +# en $end
$var wire 1 & rst_b $end
$var reg 1 =# q $end
$upscope $end
$upscope $end
$scope module regQ $end
$var wire 1 ># a0 $end
$var wire 1 $ clk $end
$var wire 8 ?# in [7:0] $end
$var wire 1 & rst_b $end
$var wire 2 @# sel [1:0] $end
$var wire 1 . q_1 $end
$var wire 8 A# out [7:0] $end
$var wire 8 B# mux_wire [7:0] $end
$var wire 1 C# mux_q $end
$scope module f0 $end
$var wire 1 $ clk $end
$var wire 1 D# d $end
$var wire 1 E# en $end
$var wire 1 & rst_b $end
$var reg 1 F# q $end
$upscope $end
$scope module f1 $end
$var wire 1 $ clk $end
$var wire 1 G# d $end
$var wire 1 H# en $end
$var wire 1 & rst_b $end
$var reg 1 I# q $end
$upscope $end
$scope module f2 $end
$var wire 1 $ clk $end
$var wire 1 J# d $end
$var wire 1 K# en $end
$var wire 1 & rst_b $end
$var reg 1 L# q $end
$upscope $end
$scope module f3 $end
$var wire 1 $ clk $end
$var wire 1 M# d $end
$var wire 1 N# en $end
$var wire 1 & rst_b $end
$var reg 1 O# q $end
$upscope $end
$scope module f4 $end
$var wire 1 $ clk $end
$var wire 1 P# d $end
$var wire 1 Q# en $end
$var wire 1 & rst_b $end
$var reg 1 R# q $end
$upscope $end
$scope module f5 $end
$var wire 1 $ clk $end
$var wire 1 S# d $end
$var wire 1 T# en $end
$var wire 1 & rst_b $end
$var reg 1 U# q $end
$upscope $end
$scope module f6 $end
$var wire 1 $ clk $end
$var wire 1 V# d $end
$var wire 1 W# en $end
$var wire 1 & rst_b $end
$var reg 1 X# q $end
$upscope $end
$scope module f7 $end
$var wire 1 $ clk $end
$var wire 1 Y# d $end
$var wire 1 Z# en $end
$var wire 1 & rst_b $end
$var reg 1 [# q $end
$upscope $end
$scope module f_1 $end
$var wire 1 $ clk $end
$var wire 1 \# en $end
$var wire 1 & rst_b $end
$var wire 1 C# d $end
$var reg 1 . q $end
$upscope $end
$scope module m0 $end
$var wire 1 ]# d0 $end
$var wire 1 ^# d1 $end
$var wire 1 _# d2 $end
$var wire 1 `# d3 $end
$var wire 2 a# sel [1:0] $end
$var wire 1 b# o $end
$var parameter 32 c# w $end
$upscope $end
$scope module m1 $end
$var wire 1 d# d0 $end
$var wire 1 e# d1 $end
$var wire 1 f# d2 $end
$var wire 1 g# d3 $end
$var wire 2 h# sel [1:0] $end
$var wire 1 i# o $end
$var parameter 32 j# w $end
$upscope $end
$scope module m2 $end
$var wire 1 k# d0 $end
$var wire 1 l# d1 $end
$var wire 1 m# d2 $end
$var wire 1 n# d3 $end
$var wire 2 o# sel [1:0] $end
$var wire 1 p# o $end
$var parameter 32 q# w $end
$upscope $end
$scope module m3 $end
$var wire 1 r# d0 $end
$var wire 1 s# d1 $end
$var wire 1 t# d2 $end
$var wire 1 u# d3 $end
$var wire 2 v# sel [1:0] $end
$var wire 1 w# o $end
$var parameter 32 x# w $end
$upscope $end
$scope module m4 $end
$var wire 1 y# d0 $end
$var wire 1 z# d1 $end
$var wire 1 {# d2 $end
$var wire 1 |# d3 $end
$var wire 2 }# sel [1:0] $end
$var wire 1 ~# o $end
$var parameter 32 !$ w $end
$upscope $end
$scope module m5 $end
$var wire 1 "$ d0 $end
$var wire 1 #$ d1 $end
$var wire 1 $$ d2 $end
$var wire 1 %$ d3 $end
$var wire 2 &$ sel [1:0] $end
$var wire 1 '$ o $end
$var parameter 32 ($ w $end
$upscope $end
$scope module m6 $end
$var wire 1 )$ d0 $end
$var wire 1 *$ d1 $end
$var wire 1 +$ d2 $end
$var wire 1 ,$ d3 $end
$var wire 2 -$ sel [1:0] $end
$var wire 1 .$ o $end
$var parameter 32 /$ w $end
$upscope $end
$scope module m7 $end
$var wire 1 0$ d0 $end
$var wire 1 ># d1 $end
$var wire 1 1$ d2 $end
$var wire 1 2$ d3 $end
$var wire 2 3$ sel [1:0] $end
$var wire 1 4$ o $end
$var parameter 32 5$ w $end
$upscope $end
$scope module m_1 $end
$var wire 1 . d0 $end
$var wire 1 6$ d1 $end
$var wire 1 7$ d2 $end
$var wire 1 8$ d3 $end
$var wire 2 9$ sel [1:0] $end
$var wire 1 C# o $end
$var parameter 32 :$ w $end
$upscope $end
$upscope $end
$upscope $end
$upscope $end
$scope module encoder $end
$var wire 2 ;$ in [1:0] $end
$var parameter 32 <$ w $end
$var reg 1 =$ out $end
$var integer 32 >$ i [31:0] $end
$upscope $end
$scope module mux_1s $end
$var wire 4 ?$ d0 [3:0] $end
$var wire 4 @$ d1 [3:0] $end
$var wire 1 A$ sel $end
$var wire 4 B$ o [3:0] $end
$var parameter 32 C$ w $end
$upscope $end
$scope module mux_3s $end
$var wire 4 D$ d0 [3:0] $end
$var wire 4 E$ d1 [3:0] $end
$var wire 4 F$ d2 [3:0] $end
$var wire 4 G$ d3 [3:0] $end
$var wire 4 H$ d4 [3:0] $end
$var wire 4 I$ d5 [3:0] $end
$var wire 4 J$ d6 [3:0] $end
$var wire 4 K$ d7 [3:0] $end
$var wire 3 L$ sel [2:0] $end
$var wire 4 M$ o [3:0] $end
$var parameter 32 N$ w $end
$upscope $end
$enddefinitions $end
$comment Show the parameter values. $end
$dumpall
b100 N$
b100 C$
b1 <$
b1 :$
b1 5$
b1 /$
b1 ($
b1 !$
b1 x#
b1 q#
b1 j#
b1 c#
b1 *#
b1 ##
b1 z"
b1 s"
b1 l"
b1 e"
b1 ^"
b1 W"
b1 P"
b1000 &"
b111 ~
b110 x
b101 r
b100 l
b11 f
b10 `
b1 Z
b0 U
$end
#0
$dumpvars
bz M$
bz L$
bz K$
bz J$
bz I$
bz H$
bz G$
bz F$
bz E$
bz D$
bz B$
zA$
bz @$
bz ?$
b11111111111111111111111111111111 >$
0=$
bz ;$
bx 9$
08$
07$
x6$
x4$
bx 3$
02$
x1$
x0$
x.$
bx -$
0,$
x+$
x*$
x)$
x'$
bx &$
0%$
x$$
x#$
x"$
x~#
bx }#
0|#
x{#
xz#
xy#
xw#
bx v#
0u#
xt#
xs#
xr#
xp#
bx o#
0n#
xm#
xl#
xk#
xi#
bx h#
0g#
xf#
xe#
xd#
xb#
bx a#
0`#
0_#
x^#
x]#
1\#
x[#
1Z#
xY#
xX#
1W#
xV#
xU#
1T#
xS#
xR#
1Q#
xP#
xO#
1N#
xM#
xL#
1K#
xJ#
xI#
1H#
xG#
xF#
1E#
xD#
xC#
bx B#
bx A#
bx @#
b0 ?#
x>#
x=#
0<#
x;#
0:#
x9#
08#
x7#
06#
x5#
04#
x3#
02#
x1#
00#
x/#
0.#
bx -#
b0 ,#
0+#
x)#
bx (#
x'#
x&#
x%#
x$#
x"#
bx !#
x~"
x}"
x|"
x{"
xy"
bx x"
xw"
xv"
xu"
xt"
xr"
bx q"
xp"
xo"
xn"
xm"
xk"
bx j"
xi"
xh"
xg"
xf"
xd"
bx c"
xb"
xa"
x`"
x_"
x]"
bx \"
x["
xZ"
xY"
xX"
xV"
bx U"
xT"
xS"
xR"
xQ"
xO"
bx N"
xM"
xL"
xK"
xJ"
1I"
xH"
xG"
1F"
xE"
xD"
1C"
xB"
xA"
1@"
x?"
x>"
1="
x<"
x;"
1:"
x9"
x8"
17"
x6"
x5"
14"
x3"
x2"
11"
x0"
bx /"
bx ."
bx -"
x,"
bx +"
x*"
x)"
x("
x'"
x%"
x$"
x#"
x""
x!"
x}
x|
x{
xz
xy
xw
xv
xu
xt
xs
xq
xp
xo
xn
xm
xk
xj
xi
xh
xg
xe
xd
xc
xb
xa
x_
x^
x]
x\
x[
xY
xX
xW
xV
xT
bx S
bx R
bx Q
bx P
xO
xN
1M
xL
xK
1J
xI
xH
1G
xF
xE
1D
xC
b0x0xxxxxxx0 B
bx A
b0 @
x?
bx >
x=
x<
x;
x:
x9
x8
x7
bx 6
x5
bx 4
b0x0xxxxxxx0 3
bx 2
bx 1
bx 0
x/
x.
bx -
bx ,
b0 +
b0 *
b0 )
0(
b0 '
1&
b0 %
0$
x#
bx "
x!
$end
#10000
0I
00"
03"
06"
09"
0<"
0?"
0B"
0E"
0H"
0O"
0V"
0]"
0d"
0k"
0r"
0y"
0"#
b0 /"
0)#
0C
0F
0["
0b"
0i"
0p"
0w"
0~"
0'#
b0 -"
b0 N"
b0 U"
b0 \"
b0 c"
b0 j"
b0 q"
b0 x"
b0 !#
b0 (#
0!
0T"
0M"
0e
0k
0q
0w
0}
0%"
0*"
0/
b0 +"
0a
0g
0m
0s
0y
0!"
0'"
0D#
0G#
0J#
0M#
0P#
0S#
0V#
0Y#
0_
0\
0b
0h
0n
0t
0z
0""
0T
0b#
0i#
0p#
0w#
0~#
0'$
0.$
b0 B#
04$
0C#
0[
b0 ,
b0 Q
0Y
b0 S
0V
0L
0W
0]
0c
0i
0o
0u
0{
0#"
0("
b0 @#
b0 a#
b0 h#
b0 o#
b0 v#
b0 }#
b0 &$
b0 -$
b0 3$
b0 9$
b0 P
05
0O
0#
b0 "
b0 0
0;
17
09
b0 3
b0 B
0S"
0K"
0X
0>#
0Z"
0Q"
0L"
0^
0a"
0X"
0R"
0d
0h"
0_"
0Y"
0j
0o"
0f"
0`"
0p
0v"
0m"
0g"
0v
0}"
0t"
0n"
0|
0|"
0{"
0u"
0$"
0&#
0%#
0$#
0)"
0=
0f#
0]#
06$
0?
0m#
0d#
0^#
0t#
0k#
0e#
0{#
0r#
0l#
0$$
0y#
0s#
0+$
0"$
0z#
01$
0)$
0#$
00$
0*$
0,"
02"
05"
08"
0;"
0>"
0A"
0D"
0G"
b0 4
b0 R
b0 ."
0J"
0.
0F#
0I#
0L#
0O#
0R#
0U#
0X#
b0 -
b0 A#
0[#
0/#
01#
03#
05#
07#
09#
0;#
b0 1
b0 -#
0=#
08
0:
b0 2
b0 6
b0 >
0<
0N
0K
0H
b0 A
0E
0&
#30000
1&
#50000
b1 )
1$
#90000
1C
00"
03"
06"
09"
0<"
0?"
0B"
0E"
0H"
0O"
0V"
0]"
0d"
0k"
0r"
0y"
0"#
b0 /"
0)#
b11 -"
b11 N"
b11 U"
b11 \"
b11 c"
b11 j"
b11 q"
b11 x"
b11 !#
b11 (#
1+#
b1 3
b1 B
1(
#100000
b10 )
0$
#140000
1.#
14#
16#
18#
b111001 %
b111001 *
b111001 ,#
#150000
0C
1F
b0 -"
b0 N"
b0 U"
b0 \"
b0 c"
b0 j"
b0 q"
b0 x"
b0 !#
b0 (#
1D#
0G#
0J#
1M#
1P#
1S#
0V#
0Y#
1`#
1u#
1|#
1%$
1b#
0i#
0p#
1w#
1~#
1'$
0.$
b111001 B#
04$
0C#
b111001 ?#
b11 @#
b11 a#
b11 h#
b11 o#
b11 v#
b11 }#
b11 &$
b11 -$
b11 3$
b11 9$
0+#
1Y
1k
1q
b111001 ,
b111001 Q
1w
1W
1i
1o
1u
b10 3
b10 B
b111001 P
1/#
15#
17#
b111001 1
b111001 -#
19#
b1 A
1E
b11 )
1$
#170000
0(
#200000
b100 )
0$
#230000
1G#
0M#
0P#
0S#
1V#
1i#
0w#
0~#
0'$
b1000011 B#
1.$
1g#
0u#
0|#
0%$
1,$
b1000011 ?#
10#
04#
06#
08#
1:#
b1000011 %
b1000011 *
b1000011 ,#
#250000
1C
1F
10"
13"
06"
09"
0<"
0?"
1B"
0E"
0H"
1M"
1T"
1w"
1O"
1V"
0]"
0d"
0k"
0r"
1y"
0"#
b1000011 /"
0)#
b1000011 +"
b11 -"
b11 N"
b11 U"
b11 \"
b11 c"
b11 j"
b11 q"
b11 x"
b11 !#
b11 (#
0`#
0g#
0,$
b0 ?#
b0 @#
b0 a#
b0 h#
b0 o#
b0 v#
b0 }#
b0 &$
b0 -$
b0 3$
b0 9$
b100 3
b100 B
11$
1)$
1#$
1m#
1d#
1^#
1f#
1]#
16$
1?
0E
b10 A
1H
1X#
1I#
b1000011 -
b1000011 A#
1F#
b101 )
1$
#300000
b110 )
0$
#350000
1I
00"
03"
16"
19"
1<"
1?"
1B"
0E"
0H"
1["
1b"
1i"
1p"
0O"
0V"
1]"
1d"
1k"
1r"
1y"
0"#
b1111100 /"
0)#
0C
0F
1e
0M"
0T"
1w"
1a
b1111100 +"
b11 -"
b11 N"
b11 U"
b11 \"
b11 c"
b11 j"
b11 q"
b11 x"
b11 !#
b11 (#
1\
1[
b11 S
1V
b1000 3
b1000 B
0Y
0_
b1111100 ,
b1111100 Q
1}
1S"
1K"
1X
1>#
1Z"
1Q"
1L"
1^
1}"
1t"
1n"
1|
12"
15"
b1000011 4
b1000011 R
b1000011 ."
1D"
b11 A
1E
b111 )
1$
#400000
b1000 )
0$
#450000
b0 -"
b0 N"
b0 U"
b0 \"
b0 c"
b0 j"
b0 q"
b0 x"
b0 !#
b0 (#
1F
1B"
b1111100 "
b1111100 0
1y"
0~"
0!
00"
03"
16"
19"
1<"
1?"
0O"
0V"
1]"
1d"
1k"
b1111100 /"
1r"
b100000 3
b100000 B
1/
1%"
0w"
1!"
1z
0}
0M"
0T"
0["
0b"
0i"
0p"
1y
1s
1m
b0 +"
0[
1t
1n
1h
0g
0a
0V
1w
1q
0k
1e
0b
0_
b1111000 S
0\
b10110101 ,
b10110101 Q
1Y
1v"
1m"
1g"
1v
1o"
1f"
1`"
1p
1h"
1_"
1Y"
1j
1a"
1X"
1R"
1d
0Z"
0Q"
0L"
0^
0S"
0K"
0X
0>#
0E
0H
b100 A
1K
1A"
1>"
1;"
18"
05"
b1111100 4
b1111100 R
b1111100 ."
02"
b1001 )
1$
#500000
b1010 )
0$
#550000
0I
0F
b0 "
b0 0
b0 3
b0 B
1#
b110 A
1H
b1011 )
1$
#600000
b1100 )
0$
#650000
0#
0H
b0 A
0K
b1101 )
1$
#700000
b1110 )
0$
#750000
b1111 )
1$
#800000
b10000 )
0$
#810000
0s
0y
0n
0t
0/
0%"
0m
0Y
0!"
0h
0V#
0G#
0D#
0B"
0}
b0 S
0z
0?"
0w
0<"
0q
09"
0k
06"
b0 ,
b0 Q
0e
0W
0i
0o
0u
0.$
0i#
b0 B#
0b#
0y"
0r"
0k"
0d"
b0 /"
0]"
b0 P
01$
0)$
0#$
0m#
0d#
0^#
0f#
0]#
06$
0?
0}"
0t"
0n"
0|
0v"
0m"
0g"
0v
0o"
0f"
0`"
0p
0h"
0_"
0Y"
0j
0a"
0X"
0R"
0d
09#
07#
05#
b0 1
b0 -#
0/#
0X#
0I#
b0 -
b0 A#
0F#
0D"
0A"
0>"
0;"
b0 4
b0 R
b0 ."
08"
0&
#830000
1&
#850000
b1 '
b1 +
b1 @
b10001 )
1$
#890000
1C
00"
03"
06"
09"
0<"
0?"
0B"
0E"
0H"
0O"
0V"
0]"
0d"
0k"
0r"
0y"
0"#
b0 /"
0)#
b11 -"
b11 N"
b11 U"
b11 \"
b11 c"
b11 j"
b11 q"
b11 x"
b11 !#
b11 (#
1+#
b1 3
b1 B
1(
#900000
b10010 )
0$
#940000
00#
14#
16#
18#
0:#
b111001 %
b111001 *
b111001 ,#
#950000
0C
1F
b0 -"
b0 N"
b0 U"
b0 \"
b0 c"
b0 j"
b0 q"
b0 x"
b0 !#
b0 (#
1D#
0G#
0J#
1M#
1P#
1S#
0V#
0Y#
1`#
1u#
1|#
1%$
1b#
0i#
0p#
1w#
1~#
1'$
0.$
b111001 B#
04$
0C#
b111001 ?#
b11 @#
b11 a#
b11 h#
b11 o#
b11 v#
b11 }#
b11 &$
b11 -$
b11 3$
b11 9$
0+#
1Y
1k
1q
b111001 ,
b111001 Q
1w
b10 3
b10 B
1W
1i
1o
1u
b111001 P
b1 A
1E
19#
17#
15#
b111001 1
b111001 -#
1/#
b10011 )
1$
#970000
0(
#1000000
b10100 )
0$
#1030000
1G#
0M#
0P#
0S#
1V#
1i#
0w#
0~#
0'$
b1000011 B#
1.$
1g#
0u#
0|#
0%$
1,$
b1000011 ?#
10#
04#
06#
08#
1:#
b1000011 %
b1000011 *
b1000011 ,#
#1050000
1C
1F
10"
13"
06"
09"
0<"
0?"
1B"
0E"
0H"
1M"
1T"
1w"
1O"
1V"
0]"
0d"
0k"
0r"
1y"
0"#
b1000011 /"
0)#
b1000011 +"
b11 -"
b11 N"
b11 U"
b11 \"
b11 c"
b11 j"
b11 q"
b11 x"
b11 !#
b11 (#
0`#
0g#
0,$
b0 ?#
b0 @#
b0 a#
b0 h#
b0 o#
b0 v#
b0 }#
b0 &$
b0 -$
b0 3$
b0 9$
b100 3
b100 B
1f#
1]#
16$
1?
1m#
1d#
1^#
11$
1)$
1#$
1F#
1I#
b1000011 -
b1000011 A#
1X#
1H
b10 A
0E
b10101 )
1$
#1100000
b10110 )
0$
#1150000
1I
1T
1b"
1'"
0!
1""
00"
13"
06"
19"
0<"
0?"
0B"
0E"
0H"
0O"
1V"
0]"
1d"
0k"
0r"
0y"
0"#
b1010 /"
0)#
0F
0/
0~"
0'#
1g
1!"
1b
1z
1k
0q
0w
0%"
0*"
0W
1]
1c
0i
0o
0u
1{
1#"
1("
b111000110 P
0M"
1T"
0w"
0e
1O
b1010 +"
b11 -"
b11 N"
b11 U"
b11 \"
b11 c"
b11 j"
b11 q"
b11 x"
b11 !#
b11 (#
1a
1\
1[
b11000 3
b11000 B
b11000111 S
1V
0}
1_
b1010 ,
b1010 Q
0Y
1}"
1t"
1n"
1|
1Z"
1Q"
1L"
1^
1S"
1K"
1X
1>#
b11 A
1E
1D"
15"
b1000011 4
b1000011 R
b1000011 ."
12"
b10111 )
1$
#1200000
b11000 )
0$
#1250000
1y
1t
b0 -"
b0 N"
b0 U"
b0 \"
b0 c"
b0 j"
b0 q"
b0 x"
b0 !#
b0 (#
0a
0g
1s
b1010 "
b1010 0
0\
0b
1n
0C
1F
13"
0<"
0E"
0'#
0e
0w
1V"
0k"
0"#
0T
00"
19"
0B"
1W
0]
0c
1i
1o
1u
0{
0#"
0("
0O"
1d"
b1010 /"
0y"
0*"
b111001 P
0'"
0O
1D#
1G#
0J#
0M#
0P#
0S#
1V#
0Y#
0T"
0i"
0~"
0!
0""
0`#
0g#
0,$
1b#
1i#
0p#
0w#
0~#
0'$
1.$
b1000011 B#
04$
0C#
b0 ?#
b0 @#
b0 a#
b0 h#
b0 o#
b0 v#
b0 }#
b0 &$
b0 -$
b0 3$
b0 9$
0M"
0b"
0w"
0/
0%"
1_
0q
b0 +"
0!"
0[
1m
0z
b100000 3
b100000 B
1Y
0V
0k
b111000 S
1h
b1000011 ,
b1000011 Q
1}
0S"
0K"
0X
0>#
1h"
1_"
1Y"
1j
0}"
0t"
0n"
0|
02"
1;"
b1010 4
b1010 R
b1010 ."
0D"
1K
b101 A
0H
b11001 )
1$
#1300000
b11010 )
0$
#1350000
0I
b0 "
b0 0
0F
b0 3
b0 B
1#
0E
b110 A
1H
b11011 )
1$
#1400000
b11100 )
0$
#1450000
0#
0K
b0 A
0H
b11101 )
1$
#1500000
b11110 )
0$
